第26章 Data recoding
…
7 Exhibit 26.5

8 むりやりあわせてみる。rankを逆にしたらどうなる。

9 *- と＊＋を入れ変えたらどうなる。 - これでExhibit 26.5 と一致した。 - 本文の説明との齟齬は、どうなるか。ただ、今の時点では、このまま訳す。2020/06/24

1 Exhibit 26.1

.d <- read_excel(path="science.xls")
M <- 5 -1
.d %>% select(1:4) -> science.df0
science.df0

## # A tibble: 871 x 4
##        A     B     C     D
##    <dbl> <dbl> <dbl> <dbl>
##  1     2     3     4     3
##  2     3     4     2     3
##  3     2     3     2     4
##  4     2     2     2     2
##  5     3     3     3     3
##  6     3     4     4     5
##  7     3     4     2     4
##  8     3     4     4     2
##  9     3     2     2     1
## 10     3     3     2     2
## # … with 861 more rows
…
