第16章 多重表
…
#.d.conv %>% mutate(CG=str_c(C,G),CGA=str_c(C,G,A)) -> .d.conv2
.d.conv %>%  count(C,G,Q3) %>% mutate(CG=factor(str_c(C,G),levels = cg_levels)) %>%
                                         filter(G!=9) %>% select(CG,Q3,n) %>% 
                                         spread(key=Q3,value = n) %>% # xtabs でやっていること
                                         mutate(Total=(W+w+H+`?`)) %>% 
                                         mutate(Wp=round(100*W/Total,1),wp=round(100*w/Total,1),
                                                Hp=round(100*H/Total,1),
                                                `?p`=round(100*`?`/Total,1)) %>%
                                         select(CG,Wp,wp,Hp,`?p`,Total)

## # A tibble: 48 x 6
##    CG       Wp    wp    Hp  `?p` Total
##    <fct> <dbl> <dbl> <dbl> <dbl> <int>
##  1 AUSm   12.9  65.6  12.5   9     909
##  2 AUSf   15.9  64.5   6.9  12.6   866
##  3 DWm     3.6  56.3  29.8  10.3  1198
##  4 DWf     5.2  63.9  19.9  11.1  1126
##  5 DEm    27.7  59.8   5.5   7     528
##  6 DEf    23.2  65.9   5.8   5.1   569
##  7 GBm    17.9  64.1   7.8  10.3   448
##  8 GBf    15.1  67     6.5  11.4   536
##  9 NIRLm  20.7  56.7  14.4   8.2   305
## 10 NIRLf  18.4  64.6   9.1   7.9   342
## # … with 38 more rows
…
5.5 chap17 スペインの学歴（E）がNA？ 0 であることの確認

.d.conv %>% filter(C == "E")

## # A tibble: 2,494 x 9
##    Q1    Q2    Q3    Q4    C     G     A     M     E    
##    <fct> <fct> <fct> <fct> <fct> <fct> <fct> <fct> <fct>
##  1 W     H     W     W     E     m     56-65 ma    <NA> 
##  2 W     ?     W     W     E     f     26-35 se    <NA> 
##  3 W     ?     W     W     E     f     36-45 ma    <NA> 
##  4 W     H     W     W     E     f     26-35 ma    <NA> 
##  5 ?     ?     ?     ?     E     m     <25   si    <NA> 
##  6 ?     ?     ?     ?     E     f     >66   wi    <NA> 
##  7 H     H     H     H     E     f     46-55 ma    <NA> 
##  8 H     H     H     H     E     f     >66   ma    <NA> 
##  9 W     w     W     W     E     m     <25   si    <NA> 
## 10 H     H     H     H     E     f     56-65 wi    <NA> 
## # … with 2,484 more rows
