第21章 サブセットCA
…
- burt 行列をcaしたが、mjcaで使うにはどうすればいいのか。
- mjca は、rpm（dataframeであれtableであれ）
- mjca でsubsetcolを指定できるので、1？、2？、3？、4？以外のindices がわかればよいことになる。
- mjca で一度処理して、res.mjcaからcolのindeicesを確認するのでもよいが、functionであったはず。

.d <- read_excel(path="womenraw.xls") # rpmデータを読む
.d[,1:4]

## # A tibble: 33,590 x 4
##       Q1    Q2    Q3    Q4
##    <dbl> <dbl> <dbl> <dbl>
##  1     1     3     2     2
##  2     1     2     2     2
##  3     1     3     4     4
##  4     1     2     2     1
##  5     1     3     2     4
##  6     1     2     1     1
##  7     4     2     4     2
##  8     1     4     1     1
##  9     1     3     2     1
## 10     1     2     1     1
## # … with 33,580 more rows
…
