第8章 行分析と列分析の対称性
…
5.1 相関

.health4ballon %>% select(xval,yval) 

## # A tibble: 35 x 2
##      xval   yval
##     <dbl>  <dbl>
##  1 -0.423 -1.00 
##  2 -0.423 -0.893
##  3 -0.423 -0.538
##  4 -0.423  0.192
##  5 -0.423  1.07 
##  6 -0.423  1.46 
##  7 -0.423  1.78 
##  8 -0.198 -1.00 
##  9 -0.198 -0.893
## 10 -0.198 -0.538
## # … with 25 more rows
…
